{
  "type": "service_account",
  "project_id": "inbound-guru-276002",
  "private_key_id": "afb6b50686af599a5b14d4f9481bd25bbe9ef735",
  "private_key": "-----BEGIN PRIVATE KEY-----\nMIIEvAIBADANBgkqhkiG9w0BAQEFAASCBKYwggSiAgEAAoIBAQDSgdnFRVhr0MgC\neC5FT87UUlh475eS37Ugjce9+QobWc73BhZvrunQgJOAmL/7paZQMrw/1HON3Rke\ngyzIiwEhDk6eHGUBcw9FHzEpbEFyVJI76LQErlT9pzftbHxwFz+OMCp+0BmpPgSE\nsRP+wEUVIf9dQdPvsc/g5E9m2QzhP2CFOLWhotPWhQoHsDsIDQG4slRs8eLA1z3r\nwLElgJUfoI011abMqCdI59YnjPEg5zEmpz88RYO6yDNoz1Ic33vnH6nycs1oy7K7\nFJhpDMPp2O0lSZfQdJMSaryEBkbkDVv0bDr9Gy2nKwEfrsbjpMLJHyNA7/shwJDf\nCsVn4IwTAgMBAAECggEAUssfi6cqj70d7Vq3WCt7faalhWs2gl3aL2OUG/PHNdqs\nvBt415REAe2QFhP97kvIjeJmh/RXPoSnTIjrJDUHzKiD40vnrhpC9zy9aT1awEzi\n9w0fQHgQlXMfXBI/HxcFuDbZf+b5MMdjn4zGAHw+r4Efnt41LSESUbF6SUk096Hv\nBOHRKhh/SxTwDbBioojCa1dcZl0W9rql6aTBcF4iPcnqFsqKoTfhYzfFi0hJRlRK\nsDtV94XVEBmbtqUH8TYJaRVOypY2bdi0b9O4u3QnE1hXZyxgts9ltfQtQJJwKEjw\nEi+jZoOXLZi1Tp+sRhMnNT+hNQoTjVDAwas33bWdAQKBgQDrM/bw0ZDUI9sskGhr\nxZyesp0su+eQ9sN1sUmoxGPoVH9gj3BsFPEy9uskYaHWQnFfZPrvEC/x7vEvjoP+\nKhKV8sKOgVp2sL6pIubeB3KLjfEbT5YFUV3UuJTjG7+kXfBlXAYuWpNkJxQxvL79\n0qLh1ls+DS/0rSIYABjtKuSHSwKBgQDlHt/7CnPK57JV5EllPT2laAgMOSE6jQpw\noLIJSCrzY49gw79Q2Q9wonZUn3v7vKMZD6MI9AgYplnWZxQzeCTT2QtZvAy6ePkm\nv6pirCk2N/+MjlB+mfFvUhwN9WOMfPcPbu05Yr0z9OMi5iUR8qlk6sB+gGPutHUE\nNW4ssDepWQKBgBeULAtUVvqNZamACJfVRbA7I7qaU8qaklm4HjRHC+T8o5BgkNqk\n9tEvI7+P8hNysb7odqeErenJFHC6Ds1qFlbl8U8r9I+1hEecchyMDpWi8yrTvaxm\nzctHfdWOsJWfvTvMD+qRtfjyWfnqfBMiDKYrQRZlaAtVV/ej+tu70xElAoGAFpWg\nhmJVX57PGWBTS8NpnDBQ+sN23wqgCNIOOpP+h9c8ftFMvm9m8jdRaq39zqadfQ7p\nhyxmz+c128h1WU1yc99lGwdKSec6x/MEnI1T0qBadERi8tfB0LNLSKTzlxmKUN8i\nSxHMjJ6K9Rmydb5xrBzntJB7SUBIeI27unP0SKECgYB1s4YDYLz4+Kz4oBIXmBqP\nUGYzBZXrdnkekn1hzDiINWIGHxZD1+45jqZ5deNowMRghKEAq4WlVyqplGD9JWLl\n80iB33yN6nU5sbHwY0aeMw4FJsuzC1AlFEQOHYinSZel5EnkcpkZMx8vkvLU11lk\n0jV31DWQkn/ds9BrMZeDCQ==\n-----END PRIVATE KEY-----\n",
  "client_email": "firebase-adminsdk-hjl30@inbound-guru-276002.iam.gserviceaccount.com",
  "client_id": "115195257181272713715",
  "auth_uri": "https://accounts.google.com/o/oauth2/auth",
  "token_uri": "https://oauth2.googleapis.com/token",
  "auth_provider_x509_cert_url": "https://www.googleapis.com/oauth2/v1/certs",
  "client_x509_cert_url": "https://www.googleapis.com/robot/v1/metadata/x509/firebase-adminsdk-hjl30%40inbound-guru-276002.iam.gserviceaccount.com"
}